{
  "meta": {
    "current_page": 1,
    "total_pages": 4
  },
  "total": 72,
  "unseen": 0,
  "results": [
    {
      "tenant_id": "default",
      "is_expiry_visible": false,
      "importance": "default",
      "seen_on": 1714402433681,
      "message": {
        "schema": "1.0",
        "header": "Pin This is header 2024-04-14T13:04:14.021Z  ",
        "text": "This is text 1713364847689"
      },
      "tags": [
        "tab1"
      ],
      "is_pinned": true,
      "archived": false,
      "created_on": 1713364986759,
      "n_category": "transactional",
      "interacted_on": 1713679768989,
      "can_user_unpin": true,
      "n_id": "01HVP85TP3PK5DRSJJ8PA6N64C"
    },
    {
      "tenant_id": "default",
      "is_expiry_visible": false,
      "importance": "default",
      "seen_on": 1714798173569,
      "message": {
        "schema": "1.0",
        "subtext": {
          "action_url": "https://www.youtube.com/",
          "text": "This is Subtext"
        },
        "header": "Normal Notification - This is header 2024-04-21T10:55:23.721Z  ",
        "text": "This is text 1714402426104",
        "avatar": {
          "action_url": "Avtar Name",
          "avatar_url": "https://cdn.dummyjson.com/product-images/11/thumbnail.jpg"
        },
        "actions": [
          {
            "open_in_new_tab": false,
            "name": "Google",
            "url": "https://google.com/"
          },
          {
            "open_in_new_tab": false,
            "name": "Maps",
            "url": "https://maps.google.com/"
          }
        ],
        "url": "https://cdn.dummyjson.com/product-images/11/thumbnail.jpg"
      },
      "tags": [
        "tab1"
      ],
      "is_pinned": false,
      "archived": false,
      "created_on": 1714798167102,
      "n_category": "transactional",
      "interacted_on": 1714798173569,
      "can_user_unpin": true,
      "n_id": "01HX0YZ0Y5GS9Y7CD0BRW95SVH"
    },
    {
      "tenant_id": "default",
      "is_expiry_visible": false,
      "importance": "default",
      "seen_on": 1714402653564,
      "message": {
        "schema": "1.0",
        "header": "Normal Notification - This is header 2024-04-21T10:55:23.721Z  ",
        "text": "This is text 1714402426104"
      },
      "tags": [
        "tab1"
      ],
      "is_pinned": false,
      "archived": false,
      "created_on": 1714402648280,
      "n_category": "transactional",
      "can_user_unpin": true,
      "n_id": "01HWN5RR4AWCMWD3M7ER5TP6RT"
    },
    {
      "tenant_id": "default",
      "is_expiry_visible": false,
      "importance": "default",
      "seen_on": 1714402638227,
      "message": {
        "schema": "1.0",
        "header": "Normal Notification - This is header 2024-04-21T10:55:23.721Z  ",
        "text": "This is text 1714402426104"
      },
      "tags": [
        "tab1"
      ],
      "is_pinned": false,
      "archived": false,
      "created_on": 1714402635244,
      "n_category": "transactional",
      "can_user_unpin": true,
      "n_id": "01HWN5RBCXY8HHV26S4BTJBTWT"
    },
    {
      "tenant_id": "default",
      "is_expiry_visible": false,
      "importance": "default",
      "seen_on": 1714402653564,
      "message": {
        "schema": "1.0",
        "header": "Normal Notification - This is header 2024-04-21T10:55:23.721Z  ",
        "text": "This is text 1714402426104"
      },
      "tags": [
        "tab1"
      ],
      "is_pinned": false,
      "archived": false,
      "created_on": 1714402631236,
      "n_category": "transactional",
      "can_user_unpin": true,
      "n_id": "01HWN5R7FPFNS5J90DKPE2YN3Z"
    },
    {
      "tenant_id": "default",
      "is_expiry_visible": false,
      "importance": "default",
      "seen_on": 1714402653564,
      "message": {
        "schema": "1.0",
        "header": "Normal Notification - This is header 2024-04-21T10:55:23.721Z  ",
        "text": "This is text 1714402426104"
      },
      "tags": [
        "tab1"
      ],
      "is_pinned": false,
      "archived": false,
      "created_on": 1714402627409,
      "n_category": "transactional",
      "can_user_unpin": true,
      "n_id": "01HWN5R3QZJE7JQ4P6XABBDE67"
    },
    {
      "tenant_id": "default",
      "is_expiry_visible": false,
      "importance": "default",
      "seen_on": 1714402620078,
      "message": {
        "schema": "1.0",
        "header": "Normal Notification - This is header 2024-04-21T10:55:23.721Z  ",
        "text": "This is text 1714402426104"
      },
      "tags": [
        "tab1"
      ],
      "is_pinned": false,
      "archived": false,
      "created_on": 1714402616071,
      "n_category": "transactional",
      "can_user_unpin": true,
      "n_id": "01HWN5QRNM94B0B8ZT9A6718XW"
    },
    {
      "tenant_id": "default",
      "is_expiry_visible": false,
      "importance": "default",
      "seen_on": 1714402622530,
      "message": {
        "schema": "1.0",
        "header": "Normal Notification - This is header 2024-04-21T10:55:23.721Z  ",
        "text": "This is text 1714402426104"
      },
      "tags": [
        "tab1"
      ],
      "is_pinned": false,
      "archived": false,
      "created_on": 1714402608658,
      "n_category": "transactional",
      "can_user_unpin": true,
      "n_id": "01HWN5QHADY1P2R8SKXTTR3W35"
    },
    {
      "tenant_id": "default",
      "is_expiry_visible": false,
      "importance": "default",
      "seen_on": 1714402593044,
      "message": {
        "schema": "1.0",
        "header": "Normal Notification - This is header 2024-04-21T10:55:23.721Z  ",
        "text": "This is text 1714401358487"
      },
      "tags": [
        "tab1"
      ],
      "is_pinned": false,
      "archived": false,
      "created_on": 1714401366558,
      "n_category": "transactional",
      "can_user_unpin": true,
      "n_id": "01HWN4HMEFTR066A8RJ16GN3TJ"
    },
    {
      "tenant_id": "default",
      "is_expiry_visible": false,
      "importance": "default",
      "seen_on": 1714401353464,
      "message": {
        "schema": "1.0",
        "header": "Normal Notification - This is header 2024-04-21T10:55:23.721Z  ",
        "text": "This is text 1714401340801"
      },
      "tags": [
        "tab1"
      ],
      "is_pinned": false,
      "archived": false,
      "created_on": 1714401348005,
      "n_category": "transactional",
      "can_user_unpin": true,
      "n_id": "01HWN4H257BC7XBE9B57D0R0FZ"
    },
    {
      "tenant_id": "default",
      "is_expiry_visible": false,
      "importance": "default",
      "seen_on": 1714401355016,
      "message": {
        "schema": "1.0",
        "header": "Normal Notification - This is header 2024-04-21T10:55:23.721Z  ",
        "text": "This is text 1714400747479"
      },
      "tags": [
        "tab1"
      ],
      "is_pinned": false,
      "archived": false,
      "created_on": 1714401036227,
      "n_category": "transactional",
      "can_user_unpin": true,
      "n_id": "01HWN47HR7R1Z9Z9VMH1SMKX2F"
    },
    {
      "tenant_id": "default",
      "is_expiry_visible": false,
      "importance": "default",
      "seen_on": 1714400739825,
      "message": {
        "schema": "1.0",
        "header": "Normal Notification - This is header 2024-04-21T10:55:23.721Z  ",
        "text": "This is text 1714397851407"
      },
      "tags": [
        "tab1"
      ],
      "is_pinned": false,
      "archived": false,
      "created_on": 1714400712905,
      "n_category": "transactional",
      "can_user_unpin": true,
      "n_id": "01HWN3XP29FM6X3FWKTESC7VFK"
    },
    {
      "tenant_id": "default",
      "is_expiry_visible": false,
      "importance": "default",
      "seen_on": 1714400744656,
      "message": {
        "schema": "1.0",
        "header": "Normal Notification - This is header 2024-04-21T10:55:23.721Z  ",
        "text": "This is text 1714397851407"
      },
      "tags": [
        "tab1"
      ],
      "is_pinned": false,
      "archived": false,
      "created_on": 1714398355418,
      "n_category": "transactional",
      "can_user_unpin": true,
      "n_id": "01HWN1NQS6PJF1D7FHC4E8A5YZ"
    },
    {
      "tenant_id": "default",
      "is_expiry_visible": false,
      "importance": "default",
      "seen_on": 1714398154950,
      "message": {
        "schema": "1.0",
        "header": "Normal Notification - This is header 2024-04-21T10:55:23.721Z  ",
        "text": "This is text 1714397621811"
      },
      "tags": [
        "tab1"
      ],
      "is_pinned": false,
      "archived": false,
      "created_on": 1714397782547,
      "n_category": "transactional",
      "can_user_unpin": true,
      "n_id": "01HWN148DZHJDNT3R9ZES07X4N"
    },
    {
      "tenant_id": "default",
      "is_expiry_visible": false,
      "importance": "default",
      "seen_on": 1714397770473,
      "message": {
        "schema": "1.0",
        "header": "Normal Notification - This is header 2024-04-21T10:55:23.721Z  ",
        "text": "This is text 1714397621811"
      },
      "tags": [
        "tab1"
      ],
      "is_pinned": false,
      "archived": false,
      "created_on": 1714397749514,
      "n_category": "transactional",
      "can_user_unpin": true,
      "n_id": "01HWN1385AAK4412DNE956TYPG"
    },
    {
      "tenant_id": "default",
      "is_expiry_visible": true,
      "importance": "default",
      "seen_on": 1714398154950,
      "message": {
        "schema": "1.0",
        "header": "Expiry With Timer This is header 2024-04-21T10:55:23.721Z  ",
        "text": "This is text 1713702946149"
      },
      "tags": [
        "tab1"
      ],
      "is_pinned": false,
      "archived": false,
      "created_on": 1713702973567,
      "n_category": "transactional",
      "expiry": 1839522600000,
      "can_user_unpin": true,
      "n_id": "01HW0AGBXTGJ1Y0XTQ6JK8JYHZ"
    },
    {
      "tenant_id": "default",
      "is_expiry_visible": true,
      "importance": "default",
      "seen_on": 1714399967719,
      "message": {
        "schema": "1.0",
        "header": "Expiry With Timer This is header 2024-04-21T10:55:23.721Z  ",
        "text": "This is text 1713702391306"
      },
      "tags": [
        "tab1"
      ],
      "is_pinned": false,
      "archived": false,
      "created_on": 1713702403223,
      "n_category": "transactional",
      "expiry": 1839522600000,
      "can_user_unpin": true,
      "n_id": "01HW09YZ1RS0VFK530512VZ6NB"
    },
    {
      "tenant_id": "default",
      "is_expiry_visible": true,
      "importance": "default",
      "seen_on": 1713702418752,
      "message": {
        "schema": "1.0",
        "header": "Expiry With Timer This is header 2024-04-21T10:55:23.721Z  ",
        "text": "This is text 1713702269711"
      },
      "tags": [
        "tab1"
      ],
      "is_pinned": false,
      "archived": false,
      "created_on": 1713702353370,
      "n_category": "transactional",
      "expiry": 1839522600000,
      "can_user_unpin": true,
      "n_id": "01HW09XEC522DPSGF7FMDJ1ZSR"
    },
    {
      "tenant_id": "default",
      "is_expiry_visible": true,
      "importance": "default",
      "seen_on": 1713702297477,
      "message": {
        "schema": "1.0",
        "header": "Expiry With Timer This is header 2024-04-21T10:55:23.721Z  ",
        "text": "This is text 1713702269711"
      },
      "tags": [
        "tab1"
      ],
      "is_pinned": false,
      "archived": false,
      "created_on": 1713702280511,
      "n_category": "transactional",
      "expiry": 1839522600000,
      "can_user_unpin": true,
      "n_id": "01HW09V76WQ6CTXEFW2M5VETQQ"
    },
    {
      "tenant_id": "default",
      "is_expiry_visible": true,
      "importance": "default",
      "seen_on": 1713702260050,
      "message": {
        "schema": "1.0",
        "header": "Expiry With Timer This is header 2024-04-21T10:55:23.721Z  ",
        "text": "This is text 1713702135088"
      },
      "tags": [
        "tab1"
      ],
      "is_pinned": false,
      "archived": false,
      "created_on": 1713702147132,
      "n_category": "transactional",
      "expiry": 1839522600000,
      "can_user_unpin": true,
      "n_id": "01HW09Q4XQPJAJ66941N72VB0H"
    }
  ]
}